{
    "compilerOptions": {
        "checkJs": true,                // enable TypeScript style type checking also for pure Javascript code. Requires JSDoc annotations or external d.ts type definition files.
        "module": "esnext",             // what kind of module code to generate. Not really used.
        "target": "es2022",             // the EcmaScript language version to be used by the type checker.
        "noImplicitReturns": true       // disallow methods that don't include a return statement but where the caller expects a return value
    },
    "exclude": ["service-worker.js", "release", "server"]    // exclude these folders from being part of the module code. Does the same with the service-worker.js because it is based on a different type definition file than the one for the app.js browser code, and thus defines the global self/this to be something else. Prevent IntelliSense from getting confused by the release code.
  }